          1 : ( 50, 205, 50 ),
          2 : ( 50, 205, 50 ),
          3 : ( 50, 205, 50 ),
          4 : ( 50, 205, 50 ),
          5 : ( 50, 205, 50 ),
          6 : ( 50, 205, 50 ),
          7 : ( 50, 205, 50 ),
          8 : ( 50, 205, 50 ),
          9 : ( 50, 205, 50 ),
         10 : ( 50, 205, 50 ),
         11 : ( 50, 205, 50 ),
         12 : ( 50, 205, 50 ),
         13 : ( 50, 205, 50 ),
         14 : ( 50, 205, 50 ),
         15 : ( 50, 205, 50 ),
         16 : ( 50, 205, 50 ),
         17 : ( 238, 221, 130 ),
         18 : ( 238, 221, 130 ),
         19 : ( 238, 221, 130 ),
         20 : ( 238, 221, 130 ),
         21 : ( 238, 221, 130 ),
         22 : ( 238, 221, 130 ),
         23 : ( 238, 221, 130 ),
         24 : ( 238, 221, 130 ),
         25 : ( 238, 221, 130 ),
         26 : ( 238, 221, 130 ),
         27 : ( 238, 221, 130 ),
         28 : ( 238, 221, 130 ),
         29 : ( 238, 221, 130 ),
         30 : ( 238, 221, 130 ),
         31 : ( 238, 221, 130 ),
         32 : ( 238, 221, 130 ),
         33 : ( 238, 221, 130 ),
         34 : ( 238, 221, 130 ),
         35 : ( 238, 221, 130 ),
         36 : ( 238, 221, 130 ),
         37 : ( 238, 221, 130 ),
         38 : ( 189, 183, 107 ),
         39 : ( 189, 183, 107 ),
         40 : ( 189, 183, 107 ),
         41 : ( 189, 183, 107 ),
         42 : ( 189, 183, 107 ),
         43 : ( 189, 183, 107 ),
         44 : ( 189, 183, 107 ),
         45 : ( 189, 183, 107 ),
         46 : ( 189, 183, 107 ),
         47 : ( 189, 183, 107 ),
         48 : ( 189, 183, 107 ),
         49 : ( 189, 183, 107 ),
         50 : ( 189, 183, 107 ),
         51 : ( 189, 183, 107 ),
         52 : ( 189, 183, 107 ),
         53 : ( 189, 183, 107 ),
         54 : ( 189, 183, 107 ),
         55 : ( 189, 183, 107 ),
         56 : ( 189, 183, 107 ),
         57 : ( 189, 183, 107 ),
         58 : ( 189, 183, 107 ),
         59 : ( 189, 183, 107 ),
         60 : ( 189, 183, 107 ),
         61 : ( 189, 183, 107 ),
         62 : ( 189, 183, 107 ),
         63 : ( 189, 183, 107 ),
         64 : ( 189, 183, 107 ),
         65 : ( 189, 183, 107 ),
         66 : ( 189, 183, 107 ),
         67 : ( 189, 183, 107 ),
         68 : ( 189, 183, 107 ),
         69 : ( 189, 183, 107 ),
         70 : ( 189, 183, 107 ),
         71 : ( 189, 183, 107 ),
         72 : ( 189, 183, 107 ),
         73 : ( 189, 183, 107 ),
         74 : ( 189, 183, 107 ),
         75 : ( 189, 183, 107 ),
         76 : ( 189, 183, 107 ),
         77 : ( 189, 183, 107 ),
         78 : ( 189, 183, 107 ),
         79 : ( 34, 139,  34 ),
         80 : ( 34, 139,  34 ),
         81 : ( 34, 139,  34 ),
         82 : ( 34, 139,  34 ),
         83 : ( 34, 139,  34 ),
         84 : ( 34, 139,  34 ),
         85 : ( 34, 139,  34 ),
         86 : ( 34, 139,  34 ),
         87 : ( 34, 139,  34 ),
         88 : ( 34, 139,  34 ),
         89 : ( 34, 139,  34 ),
         90 : ( 34, 139,  34 ),
         91 : ( 34, 139,  34 ),
         92 : ( 34, 139,  34 ),
         93 : ( 34, 139,  34 ),
         94 : ( 34, 139,  34 ),
         95 : ( 34, 139,  34 ),
         96 : ( 184, 134,  11 ),
         97 : ( 184, 134,  11 ),
         98 : ( 184, 134,  11 ),
         99 : ( 184, 134,  11 ),
        100 : ( 184, 134,  11 ),
        101 : ( 184, 134,  11 ),
        102 : ( 184, 134,  11 ),
        103 : ( 184, 134,  11 ),
        104 : ( 184, 134,  11 ),
        105 : ( 184, 134,  11 ),
        106 : ( 184, 134,  11 ),
        107 : ( 184, 134,  11 ),
        108 : ( 184, 134,  11 ),
        109 : ( 184, 134,  11 ),
        110 : ( 184, 134,  11 ),
        111 : ( 184, 134,  11 ),
        112 : ( 184, 134,  11 ),
        113 : ( 191, 191, 191 ),
        114 : ( 191, 191, 191 ),
        115 : ( 191, 191, 191 ),
        116 : ( 191, 191, 191 ),
        117 : ( 191, 191, 191 ),
        118 : ( 191, 191, 191 ),
        119 : ( 191, 191, 191 ),
        120 : ( 191, 191, 191 ),
        121 : ( 191, 191, 191 ),
        122 : ( 191, 191, 191 ),
        123 : ( 67, 110, 238 ),
        124 : ( 67, 110, 238 ),
        125 : ( 67, 110, 238 ),
        126 : ( 67, 110, 238 ),
        127 : ( 67, 110, 238 ),
        128 : ( 67, 110, 238 ),
        129 : ( 67, 110, 238 ),
        130 : ( 67, 110, 238 ),
        131 : ( 32, 178, 170 ),
        132 : ( 32, 178, 170 ),
        133 : ( 32, 178, 170 ),
        134 : ( 32, 178, 170 ),
        135 : ( 32, 178, 170 ),
        136 : ( 32, 178, 170 ),
        137 : ( 32, 178, 170 ),
        138 : ( 32, 178, 170 ),
        139 : ( 32, 178, 170 ),
        140 : ( 32, 178, 170 ),
        141 : ( 32, 178, 170 ),
        142 : ( 32, 178, 170 ),
        143 : ( 32, 178, 170 ),
        144 : ( 32, 178, 170 ),
        145 : ( 32, 178, 170 ),
        146 : ( 32, 178, 170 ),
        147 : ( 32, 178, 170 ),
        148 : ( 32, 178, 170 ),
        149 : ( 32, 178, 170 ),
        150 : ( 32, 178, 170 ),
        151 : ( 32, 178, 170 ),
        152 : ( 32, 178, 170 ),
        153 : ( 32, 178, 170 ),
        154 : ( 32, 178, 170 ),
        155 : ( 32, 178, 170 ),
        156 : ( 32, 178, 170 ),
        157 : ( 32, 178, 170 ),
        158 : ( 32, 178, 170 ),
        159 : ( 85, 107,  47 ),
        160 : ( 85, 107,  47 ),
        161 : ( 85, 107,  47 ),
        162 : ( 85, 107,  47 ),
        163 : ( 85, 107,  47 ),
        164 : ( 85, 107,  47 ),
        165 : ( 85, 107,  47 ),
        166 : ( 85, 107,  47 ),
        167 : ( 85, 107,  47 ),
        168 : ( 85, 107,  47 ),
        169 : ( 85, 107,  47 ),
        170 : ( 85, 107,  47 ),
        171 : ( 85, 107,  47 ),
        172 : ( 85, 107,  47 ),
        173 : ( 85, 107,  47 ),
        174 : ( 85, 107,  47 ),
        175 : ( 85, 107,  47 ),
        176 : ( 85, 107,  47 ),
        177 : ( 85, 107,  47 ),
        178 : ( 85, 107,  47 ),
        179 : ( 85, 107,  47 ),
        180 : ( 85, 107,  47 ),
        181 : ( 85, 107,  47 ),
        182 : ( 85, 107,  47 ),
        183 : ( 85, 107,  47 ),
        184 : ( 85, 107,  47 ),
        185 : ( 85, 107,  47 ),
        186 : ( 85, 107,  47 ),
        187 : ( 85, 107,  47 ),
        188 : ( 85, 107,  47 ),
        189 : ( 85, 107,  47 ),
        190 : ( 85, 107,  47 ),
        191 : ( 85, 107,  47 ),
        192 : ( 85, 107,  47 ),
        193 : ( 85, 107,  47 ),
        194 : ( 32, 178, 170 ),
        195 : ( 32, 178, 170 ),
        196 : ( 32, 178, 170 ),
        197 : ( 32, 178, 170 ),
        198 : ( 20, 145, 20 ),
        199 : ( 20, 145, 20 ),
        200 : ( 20, 145, 20 ),
        201 : ( 20, 145, 20 ),
        202 : ( 20, 145, 20 ),
        203 : ( 20, 145, 20 ),
        204 : ( 20, 145, 20 ),
        205 : ( 20, 145, 20 ),
        206 : ( 20, 145, 20 ),
        207 : ( 20, 145, 20 ),
        208 : ( 20, 145, 20 ),
        209 : ( 20, 145, 20 ),
        210 : ( 20, 145, 20 ),
        211 : ( 20, 145, 20 ),
        212 : ( 20, 145, 20 ),
        213 : ( 20, 145, 20 ),
        214 : ( 20, 145, 20 ),
        215 : ( 20, 145, 20 ),
        216 : ( 20, 145, 20 ),
        217 : ( 20, 145, 20 ),
        218 : ( 20, 145, 20 ),
        219 : ( 20, 145, 20 ),
        220 : ( 20, 145, 20 ),
        221 : ( 20, 145, 20 ),
        222 : ( 20, 145, 20 ),
        223 : ( 20, 145, 20 ),
        224 : ( 20, 145, 20 ),
        225 : ( 20, 145, 20 ),
        226 : ( 20, 145, 20 ),
        227 : ( 20, 145, 20 ),
        228 : ( 20, 145, 20 ),
        229 : ( 20, 145, 20 ),
        230 : ( 20, 145, 20 ),
        231 : ( 20, 145, 20 ),
        232 : ( 20, 145, 20 ),
        233 : ( 20, 145, 20 ),
        234 : ( 20, 145, 20 ),
        235 : ( 20, 145, 20 ),
        236 : ( 20, 145, 20 ),
        237 : ( 20, 145, 20 ),
        238 : ( 20, 145, 20 ),
        239 : ( 20, 145, 20 ),
        240 : ( 20, 145, 20 ),
        241 : ( 20, 145, 20 ),
        242 : ( 67, 110, 238 ),
        243 : ( 67, 110, 238 ),
        244 : ( 67, 110, 238 ),
        245 : ( 67, 110, 238 ),
        246 : ( 67, 110, 238 ),
        247 : ( 67, 110, 238 ),
        248 : ( 67, 110, 238 ),
        249 : ( 67, 110, 238 ),
        250 : ( 67, 110, 238 ),
        251 : ( 67, 110, 238 ),
        252 : ( 67, 110, 238 ),
        253 : ( 67, 110, 238 ),
        254 : ( 67, 110, 238 ),
        255 : ( 67, 110, 238 ),
        256 : ( 67, 110, 238 ),
        257 : ( 67, 110, 238 ),
        258 : ( 67, 110, 238 ),
        259 : ( 67, 110, 238 ),
        260 : ( 67, 110, 238 ),
        261 : ( 67, 110, 238 ),
        262 : ( 67, 110, 238 ),
        263 : ( 67, 110, 238 ),
        264 : ( 67, 110, 238 ),
        265 : ( 67, 110, 238 ),
        266 : ( 67, 110, 238 ),
        267 : ( 67, 110, 238 ),
        268 : ( 67, 110, 238 ),
        269 : ( 67, 110, 238 ),
        270 : ( 67, 110, 238 ),
        271 : ( 67, 110, 238 ),
        272 : ( 67, 110, 238 ),
        273 : ( 67, 110, 238 ),
        274 : ( 67, 110, 238 ),
        275 : ( 67, 110, 238 ),
        276 : ( 20, 145, 20 ),
        277 : ( 20, 145, 20 ),
        278 : ( 20, 145, 20 ),
        279 : ( 20, 145, 20 ),
        280 : ( 67, 110, 238 ),
        281 : ( 67, 110, 238 ),
        282 : ( 67, 110, 238 ),
        283 : ( 67, 110, 238 ),
        284 : ( 67, 110, 238 ),
        285 : ( 67, 110, 238 ),
        286 : ( 67, 110, 238 ),
        287 : ( 67, 110, 238 ),
        288 : ( 67, 110, 238 ),
        289 : ( 67, 110, 238 ),
        290 : ( 67, 110, 238 ),
        291 : ( 67, 110, 238 ),
        292 : ( 67, 110, 238 ),
        293 : ( 67, 110, 238 ),
        294 : ( 67, 110, 238 ),
        295 : ( 67, 110, 238 ),
        296 : ( 67, 110, 238 ),
        297 : ( 67, 110, 238 ),
        298 : ( 67, 110, 238 ),
        299 : ( 67, 110, 238 ),
        300 : ( 67, 110, 238 ),
        301 : ( 67, 110, 238 ),
        302 : ( 67, 110, 238 ),
        303 : ( 67, 110, 238 ),
        304 : ( 67, 110, 238 ),
        305 : ( 67, 110, 238 ),
        306 : ( 67, 110, 238 ),
        307 : ( 67, 110, 238 ),
        308 : ( 67, 110, 238 ),
        309 : ( 67, 110, 238 ),
        310 : ( 67, 110, 238 ),
        311 : ( 67, 110, 238 ),
        312 : ( 67, 110, 238 ),
        313 : ( 67, 110, 238 ),
        314 : ( 67, 110, 238 ),
        315 : ( 67, 110, 238 ),
        316 : ( 67, 110, 238 ),
        317 : ( 67, 110, 238 ),
        318 : ( 67, 110, 238 ),
        319 : ( 67, 110, 238 ),
        320 : ( 67, 110, 238 ),
        321 : ( 34, 139,  34 ),
        322 : ( 34, 139,  34 ),
        323 : ( 34, 139,  34 ),
        324 : ( 34, 139,  34 ),
        325 : ( 34, 139,  34 ),
        326 : ( 34, 139,  34 ),
        327 : ( 34, 139,  34 ),
        328 : ( 34, 139,  34 ),
        329 : ( 34, 139,  34 ),
        330 : ( 34, 139,  34 ),
        331 : ( 34, 139,  34 ),
        332 : ( 34, 139,  34 ),
        333 : ( 34, 139,  34 ),
        334 : ( 34, 139,  34 ),
        335 : ( 34, 139,  34 ),
        336 : ( 34, 139,  34 ),
        337 : ( 34, 139,  34 ),
        338 : ( 34, 139,  34 ),
        339 : ( 34, 139,  34 ),
        340 : ( 34, 139,  34 ),
        341 : ( 34, 139,  34 ),
        342 : ( 34, 139,  34 ),
        343 : ( 34, 139,  34 ),
        344 : ( 34, 139,  34 ),
        345 : ( 34, 139,  34 ),
        346 : ( 34, 139,  34 ),
        347 : ( 67, 110, 238 ),
        348 : ( 67, 110, 238 ),
        349 : ( 67, 110, 238 ),
        350 : ( 67, 110, 238 ),
        351 : ( 67, 110, 238 ),
        352 : ( 67, 110, 238 ),
        353 : ( 67, 110, 238 ),
        354 : ( 67, 110, 238 ),
        355 : ( 67, 110, 238 ),
        356 : ( 67, 110, 238 ),
        357 : ( 67, 110, 238 ),
        358 : ( 67, 110, 238 ),
        359 : ( 67, 110, 238 ),
        360 : ( 67, 110, 238 ),
        361 : ( 67, 110, 238 ),
        362 : ( 67, 110, 238 ),
        363 : ( 67, 110, 238 ),
        364 : ( 67, 110, 238 ),
        365 : ( 67, 110, 238 ),
        366 : ( 67, 110, 238 ),
        367 : ( 67, 110, 238 ),
        368 : ( 67, 110, 238 ),
        369 : ( 67, 110, 238 ),
        370 : ( 67, 110, 238 ),
        371 : ( 67, 110, 238 ),
        372 : ( 67, 110, 238 ),
        373 : ( 67, 110, 238 ),
        374 : ( 67, 110, 238 ),
        375 : ( 67, 110, 238 ),
        376 : ( 67, 110, 238 ),
        377 : ( 67, 110, 238 ),
        378 : ( 67, 110, 238 ),
        379 : ( 67, 110, 238 ),
        380 : ( 67, 110, 238 ),
        381 : ( 67, 110, 238 ),
        382 : ( 67, 110, 238 ),
        383 : ( 67, 110, 238 ),
        384 : ( 67, 110, 238 ),
        385 : ( 67, 110, 238 ),
        386 : ( 67, 110, 238 ),
        387 : ( 67, 110, 238 ),
        388 : ( 67, 110, 238 ),
        389 : ( 67, 110, 238 ),
        390 : ( 67, 110, 238 ),
        391 : ( 67, 110, 238 ),
        392 : ( 139, 105, 105 ),
        393 : ( 139, 105, 105 ),
        394 : ( 139, 105, 105 ),
        395 : ( 139, 105, 105 ),
        396 : ( 139, 105, 105 ),
        397 : ( 139, 105, 105 ),
        398 : ( 139, 105, 105 ),
        399 : ( 139, 105, 105 ),
        400 : ( 139, 105, 105 ),
        401 : ( 139, 105, 105 ),
        402 : ( 139, 105, 105 ),
        403 : ( 139, 105, 105 ),
        404 : ( 139, 105, 105 ),
        405 : ( 139, 105, 105 ),
        406 : ( 139, 105, 105 ),
        407 : ( 139, 105, 105 ),
        408 : ( 139, 105, 105 ),
        409 : ( 139, 105, 105 ),
        410 : ( 139, 105, 105 ),
        411 : ( 139, 105, 105 ),
        412 : ( 139, 105, 105 ),
        413 : ( 139, 105, 105 ),
        414 : ( 139, 105, 105 ),
        415 : ( 139, 105, 105 ),
        416 : ( 139, 105, 105 ),
        417 : ( 139, 105, 105 ),
        418 : ( 139, 105, 105 ),
        419 : ( 139, 105, 105 ),
        420 : ( 139, 105, 105 ),
        421 : ( 139, 105, 105 ),
        422 : ( 139, 105, 105 ),
        423 : ( 139, 105, 105 ),
        424 : ( 139, 105, 105 ),
        425 : ( 139, 105, 105 ),
        426 : ( 139, 105, 105 ),
        427 : ( 139, 105, 105 ),
        428 : ( 139, 105, 105 ),
        429 : ( 139, 105, 105 ),
        430 : ( 139, 105, 105 ),
        431 : ( 139, 105, 105 ),
        432 : ( 139, 105, 105 ),
        433 : ( 139, 105, 105 ),
        434 : ( 139, 105, 105 ),
        435 : ( 139, 105, 105 ),
        436 : ( 139, 105, 105 ),
        437 : ( 139, 129, 76 ),
        438 : ( 139, 129, 76 ),
        439 : ( 139, 129, 76 ),
        440 : ( 139, 129, 76 ),
        441 : ( 139, 129, 76 ),
        442 : ( 139, 129, 76 ),
        443 : ( 139, 129, 76 ),
        444 : ( 139, 129, 76 ),
        445 : ( 139, 129, 76 ),
        446 : ( 139, 129, 76 ),
        447 : ( 139, 129, 76 ),
        448 : ( 139, 129, 76 ),
        449 : ( 139, 129, 76 ),
        450 : ( 139, 129, 76 ),
        451 : ( 139, 129, 76 ),
        452 : ( 139, 129, 76 ),
        453 : ( 139, 129, 76 ),
        454 : ( 139, 129, 76 ),
        455 : ( 139, 129, 76 ),
        456 : ( 139, 129, 76 ),
        457 : ( 139, 129, 76 ),
        458 : ( 139, 129, 76 ),
        459 : ( 139, 129, 76 ),
        460 : ( 139, 129, 76 ),
        461 : ( 139, 129, 76 ),
        462 : ( 139, 129, 76 ),
        463 : ( 139, 129, 76 ),
        464 : ( 139, 129, 76 ),
        465 : ( 139, 129, 76 ),
        466 : ( 139, 129, 76 ),
        467 : ( 139, 129, 76 ),
        468 : ( 139, 129, 76 ),
        469 : ( 139, 129, 76 ),
        470 : ( 139, 129, 76 ),
        471 : ( 139, 129, 76 ),
        472 : ( 139, 129, 76 ),
        473 : ( 139, 129, 76 ),
        474 : ( 139, 129, 76 ),
        475 : ( 139, 129, 76 ),
        476 : ( 139, 129, 76 ),
        477 : ( 139, 129, 76 ),
        478 : ( 139, 129, 76 ),
        479 : ( 139, 129, 76 ),
        480 : ( 139, 129, 76 ),
        481 : ( 139, 129, 76 ),
        482 : ( 139, 129, 76 ),
        483 : ( 139, 129, 76 ),
        484 : ( 139, 129, 76 ),
        485 : ( 139, 129, 76 ),
        486 : ( 139, 129, 76 ),
        487 : ( 139, 129, 76 ),
        488 : ( 139, 129, 76 ),
        489 : ( 139, 129, 76 ),
        490 : ( 139, 129, 76 ),
        491 : ( 139, 129, 76 ),
        492 : ( 139, 129, 76 ),
        493 : ( 139, 129, 76 ),
        494 : ( 139, 129, 76 ),
        495 : ( 139, 129, 76 ),
        496 : ( 139, 129, 76 ),
        497 : ( 139, 129, 76 ),
        498 : ( 139, 129, 76 ),
        499 : ( 139, 129, 76 ),
        500 : ( 139, 129, 76 ),
        501 : ( 139, 129, 76 ),
        502 : ( 139, 129, 76 ),
        503 : ( 139, 129, 76 ),
        504 : ( 139, 129, 76 ),
        505 : ( 139, 129, 76 ),
        506 : ( 139, 129, 76 ),
        507 : ( 139, 129, 76 ),
        508 : ( 139, 129, 76 ),
        509 : ( 139, 129, 76 ),
        510 : ( 139, 129, 76 ),
        511 : ( 139, 129, 76 ),
        512 : ( 139, 129, 76 ),
        513 : ( 139, 129, 76 ),
        514 : ( 139, 129, 76 ),
        515 : ( 139, 129, 76 ),
        516 : ( 139, 129, 76 ),
        517 : ( 139, 129, 76 ),
        518 : ( 139, 129, 76 ),
        519 : ( 139, 129, 76 ),
        520 : ( 139, 129, 76 ),
        521 : ( 139, 129, 76 ),
        522 : ( 139, 129, 76 ),
        523 : ( 139, 129, 76 ),
        524 : ( 139, 129, 76 ),
        525 : ( 139, 129, 76 ),
        526 : ( 139, 129, 76 ),
        527 : ( 139, 129, 76 ),
        528 : ( 139, 129, 76 ),
        529 : ( 139, 129, 76 ),
        530 : ( 139, 129, 76 ),
        531 : ( 139, 129, 76 ),
        532 : ( 139, 129, 76 ),
        533 : ( 139, 129, 76 ),
        534 : ( 139, 129, 76 ),
        535 : ( 139, 129, 76 ),
        536 : ( 139, 129, 76 ),
        537 : ( 139, 129, 76 ),
        538 : ( 139, 129, 76 ),
        539 : ( 139, 129, 76 ),
        540 : ( 139, 129, 76 ),
        541 : ( 139, 129, 76 ),
        542 : ( 139, 129, 76 ),
        543 : ( 139, 129, 76 ),
        544 : ( 139, 129, 76 ),
        545 : ( 139, 129, 76 ),
        546 : ( 139, 129, 76 ),
        547 : ( 139, 129, 76 ),
        548 : ( 139, 129, 76 ),
        549 : ( 139, 129, 76 ),
        550 : ( 139, 129, 76 ),
        551 : ( 139, 129, 76 ),
        552 : ( 139, 129, 76 ),
        553 : ( 139, 129, 76 ),
        554 : ( 139, 129, 76 ),
        555 : ( 139, 129, 76 ),
        556 : ( 139, 129, 76 ),
        557 : ( 139, 129, 76 ),
        558 : ( 139, 129, 76 ),
        559 : ( 139, 129, 76 ),
        560 : ( 139, 129, 76 ),
        561 : ( 139, 129, 76 ),
        562 : ( 139, 129, 76 ),
        563 : ( 139, 129, 76 ),
        564 : ( 139, 129, 76 ),
        565 : ( 139, 129, 76 ),
        566 : ( 139, 129, 76 ),
        567 : ( 139, 129, 76 ),
        568 : ( 139, 129, 76 ),
        569 : ( 139, 129, 76 ),